{
  "assignment": [
    {
      "id": 6966460284,
      "title": "Presentation #2 - Grade",
      "description": "",
      "due": "",
      "grading_scale": "27705693",
      "grading_period": "1043208",
      "grading_category": "72984564",
      "max_points": "6",
      "factor": "1",
      "is_final": "0",
      "show_comments": "0",
      "grade_stats": "0",
      "allow_dropbox": "0",
      "allow_discussion": "1",
      "published": 1,
      "type": "assignment",
      "grade_item_id": 6966460284,
      "available": 1,
      "completed": 1,
      "dropbox_locked": 0,
      "grading_scale_type": 2,
      "show_rubric": true,
      "display_weight": "3",
      "folder_id": "0",
      "assignment_type": "basic",
      "web_url": "https://app.schoology.com/assignment/6966460284",
      "count_in_grade": 1,
      "collected_only": 0,
      "last_updated": "1696532212",
      "completion_status": "",
      "links": {
        "self": "https://api.schoology.com/v1/sections/6816432623/assignments/6966460284"
      }
    },
    {
      "id": 7015514931,
      "title": "Presentation #3 - Grade",
      "description": "",
      "due": "",
      "grading_scale": "27705693",
      "grading_period": "1043208",
      "grading_category": "72984564",
      "max_points": "6",
      "factor": "1",
      "is_final": "0",
      "show_comments": "0",
      "grade_stats": "0",
      "allow_dropbox": "0",
      "allow_discussion": "1",
      "published": 1,
      "type": "assignment",
      "grade_item_id": 7015514931,
      "available": 1,
      "completed": 1,
      "dropbox_locked": 0,
      "grading_scale_type": 2,
      "show_rubric": true,
      "display_weight": "4",
      "folder_id": "0",
      "assignment_type": "basic",
      "web_url": "https://app.schoology.com/assignment/7015514931",
      "count_in_grade": 1,
      "collected_only": 0,
      "last_updated": "1698965859",
      "completion_status": "",
      "links": {
        "self": "https://api.schoology.com/v1/sections/6816432623/assignments/7015514931"
      }
    },
    {
      "id": 6896229077,
      "title": "Ch0 Quiz",
      "description": "This quiz was given on DeltaMath.",
      "due": "2023-08-30 23:59:00",
      "grading_scale": "0",
      "grading_period": "1043208",
      "grading_category": "72984565",
      "max_points": "20",
      "factor": "1",
      "is_final": "0",
      "show_comments": "0",
      "grade_stats": "0",
      "allow_dropbox": "0",
      "allow_discussion": "1",
      "published": 1,
      "type": "assignment",
      "grade_item_id": 6896229077,
      "available": 1,
      "completed": 1,
      "dropbox_locked": 0,
      "grading_scale_type": 0,
      "show_rubric": false,
      "display_weight": "7",
      "folder_id": "738465477",
      "assignment_type": "basic",
      "web_url": "https://app.schoology.com/assignment/6896229077",
      "count_in_grade": 1,
      "collected_only": 0,
      "last_updated": "1693931081",
      "completion_status": "",
      "links": {
        "self": "https://api.schoology.com/v1/sections/6816432623/assignments/6896229077"
      }
    },
    {
      "id": 6896228831,
      "title": "Ch0 4 C's/Participation",
      "description": "",
      "due": "2023-08-31 23:59:00",
      "grading_scale": "0",
      "grading_period": "1043208",
      "grading_category": "72984564",
      "max_points": "6",
      "factor": "1",
      "is_final": "0",
      "show_comments": "0",
      "grade_stats": "0",
      "allow_dropbox": "0",
      "allow_discussion": "1",
      "published": 1,
      "type": "assignment",
      "grade_item_id": 6896228831,
      "available": 1,
      "completed": 1,
      "dropbox_locked": 0,
      "grading_scale_type": 0,
      "show_rubric": false,
      "display_weight": "6",
      "folder_id": "738465477",
      "assignment_type": "basic",
      "web_url": "https://app.schoology.com/assignment/6896228831",
      "count_in_grade": 1,
      "collected_only": 0,
      "last_updated": "1693931074",
      "completion_status": "",
      "links": {
        "self": "https://api.schoology.com/v1/sections/6816432623/assignments/6896228831"
      }
    },
    {
      "id": 6896228637,
      "title": "Ch0 Assignments - Grade",
      "description": "",
      "due": "2023-08-31 23:59:00",
      "grading_scale": "0",
      "grading_period": "1043208",
      "grading_category": "72984563",
      "max_points": "20",
      "factor": "1",
      "is_final": "0",
      "show_comments": "0",
      "grade_stats": "0",
      "allow_dropbox": "0",
      "allow_discussion": "1",
      "published": 1,
      "type": "assignment",
      "grade_item_id": 6896228637,
      "available": 1,
      "completed": 1,
      "dropbox_locked": 0,
      "grading_scale_type": 0,
      "show_rubric": false,
      "display_weight": "4",
      "folder_id": "738465477",
      "assignment_type": "basic",
      "web_url": "https://app.schoology.com/assignment/6896228637",
      "count_in_grade": 1,
      "collected_only": 0,
      "last_updated": "1693931060",
      "completion_status": "",
      "links": {
        "self": "https://api.schoology.com/v1/sections/6816432623/assignments/6896228637"
      }
    },
    {
      "id": 6896228688,
      "title": "Ch0 Notes",
      "description": "",
      "due": "2023-08-31 23:59:00",
      "grading_scale": "0",
      "grading_period": "1043208",
      "grading_category": "72984563",
      "max_points": "11",
      "factor": "1",
      "is_final": "0",
      "show_comments": "0",
      "grade_stats": "0",
      "allow_dropbox": "0",
      "allow_discussion": "1",
      "published": 1,
      "type": "assignment",
      "grade_item_id": 6896228688,
      "available": 1,
      "completed": 1,
      "dropbox_locked": 0,
      "grading_scale_type": 0,
      "show_rubric": false,
      "display_weight": "5",
      "folder_id": "738465477",
      "assignment_type": "basic",
      "web_url": "https://app.schoology.com/assignment/6896228688",
      "count_in_grade": 1,
      "collected_only": 0,
      "last_updated": "1693931066",
      "completion_status": "",
      "links": {
        "self": "https://api.schoology.com/v1/sections/6816432623/assignments/6896228688"
      }
    },
    {
      "id": 6910617030,
      "title": "Quiz on Transformations - Grade",
      "description": "",
      "due": "2023-09-07 23:59:00",
      "grading_scale": "0",
      "grading_period": "1043208",
      "grading_category": "72984565",
      "max_points": "10",
      "factor": "1",
      "is_final": "0",
      "show_comments": "0",
      "grade_stats": "0",
      "allow_dropbox": "0",
      "allow_discussion": "1",
      "published": 1,
      "type": "assignment",
      "grade_item_id": 6910617030,
      "available": 1,
      "completed": 1,
      "dropbox_locked": 0,
      "grading_scale_type": 0,
      "show_rubric": false,
      "display_weight": "1",
      "folder_id": "738468428",
      "assignment_type": "basic",
      "web_url": "https://app.schoology.com/assignment/6910617030",
      "count_in_grade": 1,
      "collected_only": 0,
      "last_updated": "1694105766",
      "completion_status": "",
      "links": {
        "self": "https://api.schoology.com/v1/sections/6816432623/assignments/6910617030"
      }
    },
    {
      "id": 6922325977,
      "title": "Ch1 4C's / Participation - Grade",
      "description": "",
      "due": "2023-09-11 23:59:00",
      "grading_scale": "0",
      "grading_period": "1043208",
      "grading_category": "72984564",
      "max_points": "2",
      "factor": "1",
      "is_final": "0",
      "show_comments": "0",
      "grade_stats": "0",
      "allow_dropbox": "0",
      "allow_discussion": "1",
      "published": 1,
      "type": "assignment",
      "grade_item_id": 6922325977,
      "available": 1,
      "completed": 1,
      "dropbox_locked": 0,
      "grading_scale_type": 0,
      "show_rubric": false,
      "display_weight": "4",
      "folder_id": "738468428",
      "assignment_type": "basic",
      "web_url": "https://app.schoology.com/assignment/6922325977",
      "count_in_grade": 1,
      "collected_only": 0,
      "last_updated": "1694566172",
      "completion_status": "",
      "links": {
        "self": "https://api.schoology.com/v1/sections/6816432623/assignments/6922325977"
      }
    },
    {
      "id": 6922325336,
      "title": "Ch1 Notes Packet - Grade",
      "description": "",
      "due": "2023-09-11 23:59:00",
      "grading_scale": "0",
      "grading_period": "1043208",
      "grading_category": "72984563",
      "max_points": "16",
      "factor": "1",
      "is_final": "0",
      "show_comments": "0",
      "grade_stats": "0",
      "allow_dropbox": "0",
      "allow_discussion": "1",
      "published": 1,
      "type": "assignment",
      "grade_item_id": 6922325336,
      "available": 1,
      "completed": 1,
      "dropbox_locked": 0,
      "grading_scale_type": 0,
      "show_rubric": false,
      "display_weight": "3",
      "folder_id": "738468428",
      "assignment_type": "basic",
      "web_url": "https://app.schoology.com/assignment/6922325336",
      "count_in_grade": 1,
      "collected_only": 0,
      "last_updated": "1694566189",
      "completion_status": "",
      "links": {
        "self": "https://api.schoology.com/v1/sections/6816432623/assignments/6922325336"
      }
    },
    {
      "id": 6922326757,
      "title": "Ch1 Test - Grade",
      "description": "If you choose to do the retake for Ch1, remember to print out the alternate version of the test and work it out. . Then, come in to meet with me before the day of the retake (Thurs/Fri  Oct 26/27) to correct this alternate version of the test.  ",
      "due": "2023-09-11 23:59:00",
      "grading_scale": "0",
      "grading_period": "1043208",
      "grading_category": "72984565",
      "max_points": "100",
      "factor": "1",
      "is_final": "0",
      "show_comments": "0",
      "grade_stats": "0",
      "allow_dropbox": "0",
      "allow_discussion": "1",
      "published": 1,
      "type": "assignment",
      "grade_item_id": 6922326757,
      "available": 1,
      "completed": 1,
      "dropbox_locked": 0,
      "grading_scale_type": 0,
      "show_rubric": false,
      "display_weight": "5",
      "folder_id": "738468428",
      "assignment_type": "basic",
      "web_url": "https://app.schoology.com/assignment/6922326757",
      "count_in_grade": 1,
      "collected_only": 0,
      "last_updated": "1697558499",
      "completion_status": "",
      "links": {
        "self": "https://api.schoology.com/v1/sections/6816432623/assignments/6922326757"
      }
    },
    {
      "id": 6922324983,
      "title": "Ch1 Worksheet Packet - Grade",
      "description": "",
      "due": "2023-09-11 23:59:00",
      "grading_scale": "0",
      "grading_period": "1043208",
      "grading_category": "72984563",
      "max_points": "20",
      "factor": "1",
      "is_final": "0",
      "show_comments": "0",
      "grade_stats": "0",
      "allow_dropbox": "0",
      "allow_discussion": "1",
      "published": 1,
      "type": "assignment",
      "grade_item_id": 6922324983,
      "available": 1,
      "completed": 1,
      "dropbox_locked": 0,
      "grading_scale_type": 0,
      "show_rubric": false,
      "display_weight": "2",
      "folder_id": "738468428",
      "assignment_type": "basic",
      "web_url": "https://app.schoology.com/assignment/6922324983",
      "count_in_grade": 1,
      "collected_only": 0,
      "last_updated": "1694566210",
      "completion_status": "",
      "links": {
        "self": "https://api.schoology.com/v1/sections/6816432623/assignments/6922324983"
      }
    },
    {
      "id": 6948538952,
      "title": "Binder Check #1 - Grade",
      "description": "",
      "due": "2023-09-20 23:59:00",
      "grading_scale": "0",
      "grading_period": "1043208",
      "grading_category": "72984563",
      "max_points": "11",
      "factor": "1",
      "is_final": "0",
      "show_comments": "0",
      "grade_stats": "0",
      "allow_dropbox": "0",
      "allow_discussion": "1",
      "published": 1,
      "type": "assignment",
      "grade_item_id": 6948538952,
      "available": 1,
      "completed": 1,
      "dropbox_locked": 0,
      "grading_scale_type": 0,
      "show_rubric": false,
      "display_weight": "9",
      "folder_id": "751296686",
      "assignment_type": "basic",
      "web_url": "https://app.schoology.com/assignment/6948538952",
      "count_in_grade": 1,
      "collected_only": 0,
      "last_updated": "1695747322",
      "completion_status": "",
      "links": {
        "self": "https://api.schoology.com/v1/sections/6816432623/assignments/6948538952"
      }
    },
    {
      "id": 6948536805,
      "title": "Ch2 4C's / Participation - Grade",
      "description": "",
      "due": "2023-09-21 23:59:00",
      "grading_scale": "0",
      "grading_period": "1043208",
      "grading_category": "72984564",
      "max_points": "6",
      "factor": "1",
      "is_final": "0",
      "show_comments": "0",
      "grade_stats": "0",
      "allow_dropbox": "0",
      "allow_discussion": "1",
      "published": 1,
      "type": "assignment",
      "grade_item_id": 6948536805,
      "available": 1,
      "completed": 1,
      "dropbox_locked": 0,
      "grading_scale_type": 0,
      "show_rubric": false,
      "display_weight": "8",
      "folder_id": "751296686",
      "assignment_type": "basic",
      "web_url": "https://app.schoology.com/assignment/6948536805",
      "count_in_grade": 1,
      "collected_only": 0,
      "last_updated": "1703103702",
      "completion_status": "",
      "links": {
        "self": "https://api.schoology.com/v1/sections/6816432623/assignments/6948536805"
      }
    },
    {
      "id": 6948534447,
      "title": "Ch2 Notes - Grade",
      "description": "",
      "due": "2023-09-21 23:59:00",
      "grading_scale": "0",
      "grading_period": "1043208",
      "grading_category": "72984563",
      "max_points": "15",
      "factor": "1",
      "is_final": "0",
      "show_comments": "0",
      "grade_stats": "0",
      "allow_dropbox": "0",
      "allow_discussion": "1",
      "published": 1,
      "type": "assignment",
      "grade_item_id": 6948534447,
      "available": 1,
      "completed": 1,
      "dropbox_locked": 0,
      "grading_scale_type": 0,
      "show_rubric": false,
      "display_weight": "7",
      "folder_id": "751296686",
      "assignment_type": "basic",
      "web_url": "https://app.schoology.com/assignment/6948534447",
      "count_in_grade": 1,
      "collected_only": 0,
      "last_updated": "1695747242",
      "completion_status": "",
      "links": {
        "self": "https://api.schoology.com/v1/sections/6816432623/assignments/6948534447"
      }
    },
    {
      "id": 6948531795,
      "title": "Ch2 Worksheets - Grade",
      "description": "",
      "due": "2023-09-21 23:59:00",
      "grading_scale": "0",
      "grading_period": "1043208",
      "grading_category": "72984563",
      "max_points": "28",
      "factor": "1",
      "is_final": "0",
      "show_comments": "0",
      "grade_stats": "0",
      "allow_dropbox": "0",
      "allow_discussion": "1",
      "published": 1,
      "type": "assignment",
      "grade_item_id": 6948531795,
      "available": 1,
      "completed": 1,
      "dropbox_locked": 0,
      "grading_scale_type": 0,
      "show_rubric": false,
      "display_weight": "6",
      "folder_id": "751296686",
      "assignment_type": "basic",
      "web_url": "https://app.schoology.com/assignment/6948531795",
      "count_in_grade": 1,
      "collected_only": 0,
      "last_updated": "1695747204",
      "completion_status": "",
      "links": {
        "self": "https://api.schoology.com/v1/sections/6816432623/assignments/6948531795"
      }
    },
    {
      "id": 6948100156,
      "title": "Ch2 Test - Grade",
      "description": "If you choose to do the retake for Ch2, remember to print out the alternate version of the test and work it out. . Then, come in to meet with me before the day of the retake (Thurs/Fri  Oct 26/27) to correct this alternate version of the test.  ",
      "due": "2023-09-22 23:59:00",
      "grading_scale": "0",
      "grading_period": "1043208",
      "grading_category": "72984565",
      "max_points": "100",
      "factor": "1",
      "is_final": "0",
      "show_comments": "0",
      "grade_stats": "0",
      "allow_dropbox": "0",
      "allow_discussion": "1",
      "published": 1,
      "type": "assignment",
      "grade_item_id": 6948100156,
      "available": 1,
      "completed": 1,
      "dropbox_locked": 0,
      "grading_scale_type": 0,
      "show_rubric": false,
      "display_weight": "5",
      "folder_id": "751296686",
      "assignment_type": "basic",
      "web_url": "https://app.schoology.com/assignment/6948100156",
      "count_in_grade": 1,
      "collected_only": 0,
      "last_updated": "1697558599",
      "completion_status": "",
      "links": {
        "self": "https://api.schoology.com/v1/sections/6816432623/assignments/6948100156"
      }
    },
    {
      "id": 6929363465,
      "title": "Presentation 1 - Grade",
      "description": "",
      "due": "2023-09-29 23:59:00",
      "grading_scale": "27705693",
      "grading_period": "1043208",
      "grading_category": "72984564",
      "max_points": "6",
      "factor": "1",
      "is_final": "0",
      "show_comments": "0",
      "grade_stats": "0",
      "allow_dropbox": "0",
      "allow_discussion": "1",
      "published": 1,
      "type": "assignment",
      "grade_item_id": 6929363465,
      "available": 1,
      "completed": 1,
      "dropbox_locked": 0,
      "grading_scale_type": 2,
      "show_rubric": true,
      "display_weight": "2",
      "folder_id": "0",
      "assignment_type": "basic",
      "web_url": "https://app.schoology.com/assignment/6929363465",
      "count_in_grade": 1,
      "collected_only": 0,
      "last_updated": "1695062070",
      "completion_status": "",
      "links": {
        "self": "https://api.schoology.com/v1/sections/6816432623/assignments/6929363465"
      }
    },
    {
      "id": 6983536507,
      "title": "Ch3 Wksts - Grade",
      "description": "",
      "due": "2023-10-10 23:59:59",
      "grading_scale": "0",
      "grading_period": "1043208",
      "grading_category": "72984563",
      "max_points": "28",
      "factor": "1",
      "is_final": "0",
      "show_comments": "0",
      "grade_stats": "0",
      "allow_dropbox": "0",
      "allow_discussion": "1",
      "published": 1,
      "type": "assignment",
      "grade_item_id": 6983536507,
      "available": 1,
      "completed": 1,
      "dropbox_locked": 0,
      "grading_scale_type": 0,
      "show_rubric": false,
      "display_weight": "7",
      "folder_id": "754914713",
      "assignment_type": "basic",
      "web_url": "https://app.schoology.com/assignment/6983536507",
      "count_in_grade": 1,
      "collected_only": 0,
      "last_updated": "1697434517",
      "completion_status": "",
      "links": {
        "self": "https://api.schoology.com/v1/sections/6816432623/assignments/6983536507"
      }
    },
    {
      "id": 6983536866,
      "title": "Ch3 4C's and Participation - Grade",
      "description": "",
      "due": "2023-10-10 23:59:00",
      "grading_scale": "0",
      "grading_period": "1043208",
      "grading_category": "72984564",
      "max_points": "11",
      "factor": "1",
      "is_final": "0",
      "show_comments": "0",
      "grade_stats": "0",
      "allow_dropbox": "0",
      "allow_discussion": "1",
      "published": 1,
      "type": "assignment",
      "grade_item_id": 6983536866,
      "available": 1,
      "completed": 1,
      "dropbox_locked": 0,
      "grading_scale_type": 0,
      "show_rubric": false,
      "display_weight": "9",
      "folder_id": "754914713",
      "assignment_type": "basic",
      "web_url": "https://app.schoology.com/assignment/6983536866",
      "count_in_grade": 1,
      "collected_only": 0,
      "last_updated": "1697434645",
      "completion_status": "",
      "links": {
        "self": "https://api.schoology.com/v1/sections/6816432623/assignments/6983536866"
      }
    },
    {
      "id": 6983536690,
      "title": "Ch3 Notes - Grade",
      "description": "",
      "due": "2023-10-10 23:59:00",
      "grading_scale": "0",
      "grading_period": "1043208",
      "grading_category": "72984563",
      "max_points": "22",
      "factor": "1",
      "is_final": "0",
      "show_comments": "0",
      "grade_stats": "0",
      "allow_dropbox": "0",
      "allow_discussion": "1",
      "published": 1,
      "type": "assignment",
      "grade_item_id": 6983536690,
      "available": 1,
      "completed": 1,
      "dropbox_locked": 0,
      "grading_scale_type": 0,
      "show_rubric": false,
      "display_weight": "8",
      "folder_id": "754914713",
      "assignment_type": "basic",
      "web_url": "https://app.schoology.com/assignment/6983536690",
      "count_in_grade": 1,
      "collected_only": 0,
      "last_updated": "1697434553",
      "completion_status": "",
      "links": {
        "self": "https://api.schoology.com/v1/sections/6816432623/assignments/6983536690"
      }
    }
  ],
  "total": 41,
  "links": {
    "self": "https://api.schoology.com/v1/sections/6816432623/assignments?start=0&limit=20",
    "next": "https://api.schoology.com/v1/sections/6816432623/assignments?start=20&limit=20"
  }
}